Opened connection at 11/6/2020 3:58:12 PM -05:00
Started transaction at 11/6/2020 3:58:12 PM -05:00
INSERT [dbo].[Projects]([Name], [CreatedDate], [LastModifiedDate], [AccountId], [CreatedBy_Id], [LastModifiedBy_Id], [TenantId], [DueDate], [Status], [HourlyRateType], [IsDeleted], [IsEnabled], [HourlyRate], [FlatRate], [Guid], [Notes], [IsFlatRateBilled], [BoxFolderId], [Number], [NameAndNumber], [BillableFlatRate], [EvergreenIsOn], [EvergreenAmount], [LedesClientMatterId], [ContingencyRatePercent], [IsEmailSync], [IsFilesSync], [DropboxFolderId], [OpenDate], [CloseDate], [OriginatedBy_Id], [IsContactSync], [DefaultPaymentSourceGuid], [IsAddEvergreenToInvoice], [BoxSharedFolderUrl], [GoogleDriveFolderId], [OneDriveFolderId], [PresetProjectRate_Id])
VALUES (@0, @1, @2, @3, @4, @5, @6, @7, @8, @9, @10, @11, @12, @13, @14, @15, @16, NULL, @17, @18, @19, @20, @21, NULL, @22, @23, @24, NULL, @25, NULL, @26, @27, NULL, @28, NULL, NULL, NULL, NULL)
SELECT [Id]
FROM [dbo].[Projects]
WHERE @@ROWCOUNT > 0 AND [Id] = scope_identity()
-- @0: 'Zamit' (Type = String, Size = 800)
-- @1: '11/6/2020 3:58:12 PM' (Type = DateTime2)
-- @2: '11/6/2020 3:58:12 PM' (Type = DateTime2)
-- @3: '3614249' (Type = Int64)
-- @4: '116087' (Type = Int32)
-- @5: '116087' (Type = Int32)
-- @6: '524647' (Type = Int64)
-- @7: '6/11/2020 12:00:00 AM' (Type = DateTime2)
-- @8: '3' (Type = Int32)
-- @9: '1' (Type = Int32)
-- @10: 'False' (Type = Boolean)
-- @11: 'True' (Type = Boolean)
-- @12: '0' (Type = Decimal, Precision = 18, Scale = 2)
-- @13: '0' (Type = Decimal, Precision = 18, Scale = 2)
-- @14: '1b69f010-b0b5-408b-8eb9-02e47f74cbbe' (Type = Guid)
-- @15: 'Aliquam quis turpis eget elit sodales scelerisque. Mauris sit amet eros. Suspendisse accumsan tortor quis turpis.' (Type = String, Size = -1)
-- @16: 'False' (Type = Boolean)
-- @17: '1123' (Type = Int32)
-- @18: '1123 - Zamit' (Type = String, Size = 850)
-- @19: '0' (Type = Decimal, Precision = 18, Scale = 2)
-- @20: 'False' (Type = Boolean)
-- @21: '0' (Type = Decimal, Precision = 18, Scale = 2)
-- @22: '0' (Type = Decimal, Precision = 18, Scale = 2)
-- @23: 'False' (Type = Boolean)
-- @24: 'False' (Type = Boolean)
-- @25: '8/26/2020 12:00:00 AM' (Type = DateTime2)
-- @26: '116087' (Type = Int32)
-- @27: 'False' (Type = Boolean)
-- @28: 'False' (Type = Boolean)
-- Executing at 11/6/2020 3:58:12 PM -05:00
-- Completed in 91 ms with result: SqlDataReader

INSERT [dbo].[CustomFieldValues]([Guid], [CustomFieldId], [AccountId], [ProjectId], [ValueDateTime], [ValueString], [ValueNumber], [ContactId], [ValueBoolean], [ValueContactId])
VALUES (@0, @1, NULL, @2, NULL, NULL, NULL, NULL, @3, NULL)
SELECT [Id]
FROM [dbo].[CustomFieldValues]
WHERE @@ROWCOUNT > 0 AND [Id] = scope_identity()
-- @0: 'c9b7b3b5-6fe2-45d4-a812-45ccf3a6238b' (Type = Guid)
-- @1: '169060' (Type = Int64)
-- @2: '1552710' (Type = Int64)
-- @3: 'True' (Type = Boolean)
-- Executing at 11/6/2020 3:58:12 PM -05:00
-- Completed in 55 ms with result: SqlDataReader

INSERT [dbo].[CustomFieldValues]([Guid], [CustomFieldId], [AccountId], [ProjectId], [ValueDateTime], [ValueString], [ValueNumber], [ContactId], [ValueBoolean], [ValueContactId])
VALUES (@0, @1, NULL, @2, NULL, @3, NULL, NULL, @4, NULL)
SELECT [Id]
FROM [dbo].[CustomFieldValues]
WHERE @@ROWCOUNT > 0 AND [Id] = scope_identity()
-- @0: '0c3aee40-89df-4d01-914c-a2eef71a7dd9' (Type = Guid)
-- @1: '169061' (Type = Int64)
-- @2: '1552710' (Type = Int64)
-- @3: 'Vestibulum quam sapien, varius ut, blandit non, interdum in, ante. Vestibulum ante ipsum primis in faucibus orci luctus et ultrices posuere cubilia Curae; Duis faucibus accumsan odio. Curabitur convallis.' (Type = String, Size = -1)
-- @4: 'False' (Type = Boolean)
-- Executing at 11/6/2020 3:58:12 PM -05:00
-- Completed in 57 ms with result: SqlDataReader

Committed transaction at 11/6/2020 3:58:13 PM -05:00
Closed connection at 11/6/2020 3:58:13 PM -05:00
Opened connection at 11/6/2020 3:58:13 PM -05:00
Started transaction at 11/6/2020 3:58:13 PM -05:00
INSERT INTO ProjectUsers VALUES(1552710, 116087);

-- Executing at 11/6/2020 3:58:13 PM -05:00
-- Completed in 53 ms with result: 1

Committed transaction at 11/6/2020 3:58:13 PM -05:00
Closed connection at 11/6/2020 3:58:13 PM -05:00
