Opened connection at 11/6/2020 4:27:50 PM -05:00
Started transaction at 11/6/2020 4:27:50 PM -05:00
INSERT [dbo].[Projects]([Name], [CreatedDate], [LastModifiedDate], [AccountId], [CreatedBy_Id], [LastModifiedBy_Id], [TenantId], [DueDate], [Status], [HourlyRateType], [IsDeleted], [IsEnabled], [HourlyRate], [FlatRate], [Guid], [Notes], [IsFlatRateBilled], [BoxFolderId], [Number], [NameAndNumber], [BillableFlatRate], [EvergreenIsOn], [EvergreenAmount], [LedesClientMatterId], [ContingencyRatePercent], [IsEmailSync], [IsFilesSync], [DropboxFolderId], [OpenDate], [CloseDate], [OriginatedBy_Id], [IsContactSync], [DefaultPaymentSourceGuid], [IsAddEvergreenToInvoice], [BoxSharedFolderUrl], [GoogleDriveFolderId], [OneDriveFolderId], [PresetProjectRate_Id])
VALUES (@0, @1, @2, @3, @4, @5, @6, @7, @8, @9, @10, @11, @12, @13, @14, @15, @16, NULL, @17, @18, @19, @20, @21, NULL, @22, @23, @24, NULL, @25, NULL, @26, @27, NULL, @28, NULL, NULL, NULL, NULL)
SELECT [Id]
FROM [dbo].[Projects]
WHERE @@ROWCOUNT > 0 AND [Id] = scope_identity()
-- @0: 'Sonsing' (Type = String, Size = 800)
-- @1: '11/6/2020 4:27:50 PM' (Type = DateTime2)
-- @2: '11/6/2020 4:27:50 PM' (Type = DateTime2)
-- @3: '3615675' (Type = Int64)
-- @4: '116087' (Type = Int32)
-- @5: '116087' (Type = Int32)
-- @6: '524647' (Type = Int64)
-- @7: '7/15/2017 12:00:00 AM' (Type = DateTime2)
-- @8: '2' (Type = Int32)
-- @9: '1' (Type = Int32)
-- @10: 'False' (Type = Boolean)
-- @11: 'True' (Type = Boolean)
-- @12: '0' (Type = Decimal, Precision = 18, Scale = 2)
-- @13: '0' (Type = Decimal, Precision = 18, Scale = 2)
-- @14: 'c73478e2-b611-4433-b6f5-dcf88183ff7d' (Type = Guid)
-- @15: 'Duis bibendum, felis sed interdum venenatis, turpis enim blandit mi, in porttitor pede justo eu massa. Donec dapibus. Duis at velit eu est congue elementum.' (Type = String, Size = -1)
-- @16: 'False' (Type = Boolean)
-- @17: '490' (Type = Int32)
-- @18: '490 - Sonsing' (Type = String, Size = 850)
-- @19: '0' (Type = Decimal, Precision = 18, Scale = 2)
-- @20: 'False' (Type = Boolean)
-- @21: '0' (Type = Decimal, Precision = 18, Scale = 2)
-- @22: '42' (Type = Decimal, Precision = 18, Scale = 2)
-- @23: 'False' (Type = Boolean)
-- @24: 'False' (Type = Boolean)
-- @25: '12/30/2011 12:00:00 AM' (Type = DateTime2)
-- @26: '116087' (Type = Int32)
-- @27: 'False' (Type = Boolean)
-- @28: 'False' (Type = Boolean)
-- Executing at 11/6/2020 4:27:50 PM -05:00
-- Completed in 122 ms with result: SqlDataReader

INSERT [dbo].[CustomFieldValues]([Guid], [CustomFieldId], [AccountId], [ProjectId], [ValueDateTime], [ValueString], [ValueNumber], [ContactId], [ValueBoolean], [ValueContactId])
VALUES (@0, @1, NULL, @2, NULL, NULL, NULL, NULL, @3, NULL)
SELECT [Id]
FROM [dbo].[CustomFieldValues]
WHERE @@ROWCOUNT > 0 AND [Id] = scope_identity()
-- @0: 'aceb1217-afed-4391-9f7b-f792991eac13' (Type = Guid)
-- @1: '169060' (Type = Int64)
-- @2: '1554136' (Type = Int64)
-- @3: 'True' (Type = Boolean)
-- Executing at 11/6/2020 4:27:51 PM -05:00
-- Completed in 123 ms with result: SqlDataReader

INSERT [dbo].[CustomFieldValues]([Guid], [CustomFieldId], [AccountId], [ProjectId], [ValueDateTime], [ValueString], [ValueNumber], [ContactId], [ValueBoolean], [ValueContactId])
VALUES (@0, @1, NULL, @2, NULL, @3, NULL, NULL, @4, NULL)
SELECT [Id]
FROM [dbo].[CustomFieldValues]
WHERE @@ROWCOUNT > 0 AND [Id] = scope_identity()
-- @0: 'e6451215-f13c-4198-9ad4-b48d75b389a0' (Type = Guid)
-- @1: '169061' (Type = Int64)
-- @2: '1554136' (Type = Int64)
-- @3: 'Etiam vel augue. Vestibulum rutrum rutrum neque. Aenean auctor gravida sem.' (Type = String, Size = -1)
-- @4: 'False' (Type = Boolean)
-- Executing at 11/6/2020 4:27:51 PM -05:00
-- Completed in 112 ms with result: SqlDataReader

Committed transaction at 11/6/2020 4:27:51 PM -05:00
Closed connection at 11/6/2020 4:27:51 PM -05:00
Opened connection at 11/6/2020 4:27:51 PM -05:00
Started transaction at 11/6/2020 4:27:51 PM -05:00
INSERT INTO TagProjects VALUES(161935, 1554136);

-- Executing at 11/6/2020 4:27:51 PM -05:00
-- Completed in 270 ms with result: 1

Committed transaction at 11/6/2020 4:27:52 PM -05:00
Closed connection at 11/6/2020 4:27:52 PM -05:00
