Opened connection at 6/15/2021 10:13:36 AM -04:00
Started transaction at 6/15/2021 10:13:36 AM -04:00
INSERT [dbo].[Contacts]([Email], [Mobile], [Home], [Office], [Ext], [Fax], [Salutation], [Position], [IsEnabled], [IsDeleted], [CreatedDate], [LastModifiedDate], [CreatedBy_Id], [LastModifiedBy_Id], [TenantId], [DateOfBirth], [MailingAddressId], [OtherAddressId], [Gender], [Anniversary], [AccountId], [Type], [ConversionDate], [SkypeId], [Twitter], [LeadStatus], [LeadCompanyName], [OwnerId], [CampaignId], [Photo_Id], [Guid], [Notes], [JobTitle], [IsEmailOptOut], [FirstName], [LastName], [Prefix], [MiddleName], [Portal_Id], [DisplayName])
VALUES (NULL, NULL, NULL, NULL, NULL, NULL, NULL, NULL, @0, @1, @2, @3, @4, @5, @6, NULL, NULL, NULL, @7, NULL, NULL, @8, NULL, NULL, NULL, @9, NULL, NULL, NULL, NULL, @10, NULL, NULL, @11, @12, @13, NULL, NULL, NULL, @14)
SELECT [Id], [FullName]
FROM [dbo].[Contacts]
WHERE @@ROWCOUNT > 0 AND [Id] = scope_identity()
-- @0: 'True' (Type = Boolean)
-- @1: 'False' (Type = Boolean)
-- @2: '6/15/2021 10:13:36 AM' (Type = DateTime2)
-- @3: '6/15/2021 10:13:36 AM' (Type = DateTime2)
-- @4: '116582' (Type = Int32)
-- @5: '116582' (Type = Int32)
-- @6: '525095' (Type = Int64)
-- @7: '0' (Type = Int32)
-- @8: '0' (Type = Int32)
-- @9: '0' (Type = Int32)
-- @10: 'd745b5a0-78d7-4954-8aaa-77f5af4b0236' (Type = Guid)
-- @11: 'False' (Type = Boolean)
-- @12: 'Scott/Redeman' (Type = String, Size = 50)
-- @13: 'Burns' (Type = String, Size = 50)
-- @14: 'Scott/Redeman  Burns' (Type = String, Size = 255)
-- Executing at 6/15/2021 10:13:36 AM -04:00
-- Completed in 69 ms with result: SqlDataReader

INSERT [dbo].[Accounts]([Name], [IsEnabled], [IsDeleted], [CreatedDate], [LastModifiedDate], [IsCustomPriceList], [CreatedBy_Id], [LastModifiedBy_Id], [TenantId], [PrimaryContactId], [PriceListId], [BillingAddressId], [ShippingAddressId], [Website], [CampaignId], [Logo_Id], [Guid], [Notes], [CultureName], [CurrencyCode], [IsAllowClientToViewAllOutstandingInvoices], [IsAllowClientToViewAllPayments], [IsAllowClientToViewAccountBalances], [IsSendInvoicePaymentReminders], [IsSendQuoteApprovalReminders], [IsAllowClientToViewAllPaidInvoices], [BoxFolderId], [Number], [QuickbooksId], [LastQuickbooksSyncDate], [XeroId], [LastXeroSyncDate], [NameAndNumber], [IsEmailSync], [IsFilesSync], [DropboxFolderId], [IsContactSync], [DefaultPaymentSourceGuid], [LedesClientId], [BoxSharedFolderUrl], [GoogleDriveFolderId], [OneDriveFolderId], [UtbmsIsEnabled], [HeadNoteClientId], [IsDisableEcheck])
VALUES (@0, @1, @2, @3, @4, @5, @6, @7, @8, @9, NULL, NULL, NULL, NULL, NULL, NULL, @10, NULL, @11, @12, @13, @14, @15, @16, @17, @18, NULL, @19, NULL, NULL, NULL, NULL, @20, @21, @22, NULL, @23, NULL, NULL, NULL, NULL, NULL, @24, NULL, @25)
SELECT [Id]
FROM [dbo].[Accounts]
WHERE @@ROWCOUNT > 0 AND [Id] = scope_identity()
-- @0: '' (Type = String, Size = 100)
-- @1: 'True' (Type = Boolean)
-- @2: 'False' (Type = Boolean)
-- @3: '6/15/2021 10:13:36 AM' (Type = DateTime2)
-- @4: '6/15/2021 10:13:36 AM' (Type = DateTime2)
-- @5: 'False' (Type = Boolean)
-- @6: '116582' (Type = Int32)
-- @7: '116582' (Type = Int32)
-- @8: '525095' (Type = Int64)
-- @9: '3273841' (Type = Int64)
-- @10: '5bfbe5b3-4fc8-40b5-87e8-e4cd78bed62e' (Type = Guid)
-- @11: 'en-US' (Type = String, Size = 5)
-- @12: 'USD' (Type = String, Size = 3)
-- @13: 'False' (Type = Boolean)
-- @14: 'False' (Type = Boolean)
-- @15: 'False' (Type = Boolean)
-- @16: 'False' (Type = Boolean)
-- @17: 'False' (Type = Boolean)
-- @18: 'False' (Type = Boolean)
-- @19: '7134' (Type = Int32)
-- @20: '7134 - Scott/Redeman  Burns' (Type = String, Size = 255)
-- @21: 'False' (Type = Boolean)
-- @22: 'False' (Type = Boolean)
-- @23: 'False' (Type = Boolean)
-- @24: 'False' (Type = Boolean)
-- @25: 'False' (Type = Boolean)
-- Executing at 6/15/2021 10:13:36 AM -04:00
-- Completed in 74 ms with result: SqlDataReader

INSERT [dbo].[Addresses]([Name], [Address1], [Address2], [City], [State], [Country], [PostalCode], [IsEnabled], [IsDeleted], [CreatedDate], [LastModifiedDate], [CreatedBy_Id], [LastModifiedBy_Id], [AccountId], [Contact_Id], [TenantId], [ContactId])
VALUES (@0, @1, NULL, @2, @3, NULL, @4, @5, @6, @7, @8, @9, @10, @11, NULL, @12, NULL)
SELECT [Id]
FROM [dbo].[Addresses]
WHERE @@ROWCOUNT > 0 AND [Id] = scope_identity()
-- @0: 'Billing' (Type = String, Size = 50)
-- @1: '158 East 58th Street ' (Type = String, Size = 100)
-- @2: 'Tulsa' (Type = String, Size = 50)
-- @3: 'OK' (Type = String, Size = 50)
-- @4: '74105' (Type = String, Size = 50)
-- @5: 'True' (Type = Boolean)
-- @6: 'False' (Type = Boolean)
-- @7: '6/15/2021 10:13:36 AM' (Type = DateTime2)
-- @8: '6/15/2021 10:13:36 AM' (Type = DateTime2)
-- @9: '116582' (Type = Int32)
-- @10: '116582' (Type = Int32)
-- @11: '3614522' (Type = Int64)
-- @12: '525095' (Type = Int64)
-- Executing at 6/15/2021 10:13:36 AM -04:00
-- Completed in 65 ms with result: SqlDataReader

INSERT [dbo].[Addresses]([Name], [Address1], [Address2], [City], [State], [Country], [PostalCode], [IsEnabled], [IsDeleted], [CreatedDate], [LastModifiedDate], [CreatedBy_Id], [LastModifiedBy_Id], [AccountId], [Contact_Id], [TenantId], [ContactId])
VALUES (@0, NULL, NULL, NULL, NULL, NULL, NULL, @1, @2, NULL, NULL, NULL, NULL, @3, NULL, NULL, NULL)
SELECT [Id]
FROM [dbo].[Addresses]
WHERE @@ROWCOUNT > 0 AND [Id] = scope_identity()
-- @0: 'Shipping' (Type = String, Size = 50)
-- @1: 'False' (Type = Boolean)
-- @2: 'False' (Type = Boolean)
-- @3: '3614522' (Type = Int64)
-- Executing at 6/15/2021 10:13:36 AM -04:00
-- Completed in 55 ms with result: SqlDataReader

Committed transaction at 6/15/2021 10:13:36 AM -04:00
Closed connection at 6/15/2021 10:13:36 AM -04:00
Opened connection at 6/15/2021 10:13:36 AM -04:00
Started transaction at 6/15/2021 10:13:36 AM -04:00
UPDATE Accounts SET
	BillingAddressId = 5039134,
	ShippingAddressId = 5039135
WHERE Id = 3614522;

UPDATE Contacts SET
	AccountId = 3614522
WHERE Id = 3273841;
INSERT INTO TagAccounts VALUES(161898, 3614522);
INSERT INTO AccountUsers VALUES(116582, 3614522);

-- Executing at 6/15/2021 10:13:36 AM -04:00
-- Completed in 58 ms with result: 4

Committed transaction at 6/15/2021 10:13:37 AM -04:00
Closed connection at 6/15/2021 10:13:37 AM -04:00
