Opened connection at 11/6/2020 5:29:16 PM -05:00
Started transaction at 11/6/2020 5:29:16 PM -05:00
INSERT [dbo].[Projects]([Name], [CreatedDate], [LastModifiedDate], [AccountId], [CreatedBy_Id], [LastModifiedBy_Id], [TenantId], [DueDate], [Status], [HourlyRateType], [IsDeleted], [IsEnabled], [HourlyRate], [FlatRate], [Guid], [Notes], [IsFlatRateBilled], [BoxFolderId], [Number], [NameAndNumber], [BillableFlatRate], [EvergreenIsOn], [EvergreenAmount], [LedesClientMatterId], [ContingencyRatePercent], [IsEmailSync], [IsFilesSync], [DropboxFolderId], [OpenDate], [CloseDate], [OriginatedBy_Id], [IsContactSync], [DefaultPaymentSourceGuid], [IsAddEvergreenToInvoice], [BoxSharedFolderUrl], [GoogleDriveFolderId], [OneDriveFolderId], [PresetProjectRate_Id])
VALUES (@0, @1, @2, @3, @4, @5, @6, @7, @8, @9, @10, @11, @12, @13, @14, @15, @16, NULL, @17, @18, @19, @20, @21, NULL, @22, @23, @24, NULL, @25, NULL, @26, @27, NULL, @28, NULL, NULL, NULL, NULL)
SELECT [Id]
FROM [dbo].[Projects]
WHERE @@ROWCOUNT > 0 AND [Id] = scope_identity()
-- @0: 'Treeflex' (Type = String, Size = 800)
-- @1: '11/6/2020 5:29:16 PM' (Type = DateTime2)
-- @2: '11/6/2020 5:29:16 PM' (Type = DateTime2)
-- @3: '3618614' (Type = Int64)
-- @4: '116087' (Type = Int32)
-- @5: '116087' (Type = Int32)
-- @6: '524647' (Type = Int64)
-- @7: '9/25/2011 12:00:00 AM' (Type = DateTime2)
-- @8: '2' (Type = Int32)
-- @9: '1' (Type = Int32)
-- @10: 'False' (Type = Boolean)
-- @11: 'True' (Type = Boolean)
-- @12: '0' (Type = Decimal, Precision = 18, Scale = 2)
-- @13: '0' (Type = Decimal, Precision = 18, Scale = 2)
-- @14: '6ff5cd46-96a2-402a-a0e9-eec917529be6' (Type = Guid)
-- @15: 'Vestibulum ac est lacinia nisi venenatis tristique. Fusce congue, diam id ornare imperdiet, sapien urna pretium nisl, ut volutpat sapien arcu sed augue. Aliquam erat volutpat.' (Type = String, Size = -1)
-- @16: 'False' (Type = Boolean)
-- @17: '3723' (Type = Int32)
-- @18: '3723 - Treeflex' (Type = String, Size = 850)
-- @19: '0' (Type = Decimal, Precision = 18, Scale = 2)
-- @20: 'False' (Type = Boolean)
-- @21: '0' (Type = Decimal, Precision = 18, Scale = 2)
-- @22: '0' (Type = Decimal, Precision = 18, Scale = 2)
-- @23: 'False' (Type = Boolean)
-- @24: 'False' (Type = Boolean)
-- @25: '2/22/2011 12:00:00 AM' (Type = DateTime2)
-- @26: '116087' (Type = Int32)
-- @27: 'False' (Type = Boolean)
-- @28: 'False' (Type = Boolean)
-- Executing at 11/6/2020 5:29:16 PM -05:00
-- Completed in 58 ms with result: SqlDataReader

INSERT [dbo].[CustomFieldValues]([Guid], [CustomFieldId], [AccountId], [ProjectId], [ValueDateTime], [ValueString], [ValueNumber], [ContactId], [ValueBoolean], [ValueContactId])
VALUES (@0, @1, NULL, @2, NULL, NULL, NULL, NULL, @3, NULL)
SELECT [Id]
FROM [dbo].[CustomFieldValues]
WHERE @@ROWCOUNT > 0 AND [Id] = scope_identity()
-- @0: 'b0bcdbfb-9b52-49b4-aaac-7b0c32260ab5' (Type = Guid)
-- @1: '169060' (Type = Int64)
-- @2: '1557075' (Type = Int64)
-- @3: 'True' (Type = Boolean)
-- Executing at 11/6/2020 5:29:16 PM -05:00
-- Completed in 55 ms with result: SqlDataReader

INSERT [dbo].[CustomFieldValues]([Guid], [CustomFieldId], [AccountId], [ProjectId], [ValueDateTime], [ValueString], [ValueNumber], [ContactId], [ValueBoolean], [ValueContactId])
VALUES (@0, @1, NULL, @2, NULL, @3, NULL, NULL, @4, NULL)
SELECT [Id]
FROM [dbo].[CustomFieldValues]
WHERE @@ROWCOUNT > 0 AND [Id] = scope_identity()
-- @0: '9e8ca134-cef9-4f58-b6d1-277a619ea750' (Type = Guid)
-- @1: '169061' (Type = Int64)
-- @2: '1557075' (Type = Int64)
-- @3: 'Morbi non lectus. Aliquam sit amet diam in magna bibendum imperdiet. Nullam orci pede, venenatis non, sodales sed, tincidunt eu, felis.' (Type = String, Size = -1)
-- @4: 'False' (Type = Boolean)
-- Executing at 11/6/2020 5:29:16 PM -05:00
-- Completed in 55 ms with result: SqlDataReader

Committed transaction at 11/6/2020 5:29:16 PM -05:00
Closed connection at 11/6/2020 5:29:16 PM -05:00
Opened connection at 11/6/2020 5:29:16 PM -05:00
Started transaction at 11/6/2020 5:29:16 PM -05:00
INSERT INTO ProjectUsers VALUES(1557075, 116087);
INSERT INTO TagProjects VALUES(161948, 1557075);

-- Executing at 11/6/2020 5:29:16 PM -05:00
-- Completed in 54 ms with result: 2

Committed transaction at 11/6/2020 5:29:16 PM -05:00
Closed connection at 11/6/2020 5:29:16 PM -05:00
