Opened connection at 11/6/2020 4:09:59 PM -05:00
Started transaction at 11/6/2020 4:10:00 PM -05:00
INSERT [dbo].[Projects]([Name], [CreatedDate], [LastModifiedDate], [AccountId], [CreatedBy_Id], [LastModifiedBy_Id], [TenantId], [DueDate], [Status], [HourlyRateType], [IsDeleted], [IsEnabled], [HourlyRate], [FlatRate], [Guid], [Notes], [IsFlatRateBilled], [BoxFolderId], [Number], [NameAndNumber], [BillableFlatRate], [EvergreenIsOn], [EvergreenAmount], [LedesClientMatterId], [ContingencyRatePercent], [IsEmailSync], [IsFilesSync], [DropboxFolderId], [OpenDate], [CloseDate], [OriginatedBy_Id], [IsContactSync], [DefaultPaymentSourceGuid], [IsAddEvergreenToInvoice], [BoxSharedFolderUrl], [GoogleDriveFolderId], [OneDriveFolderId], [PresetProjectRate_Id])
VALUES (@0, @1, @2, @3, @4, @5, @6, @7, @8, @9, @10, @11, @12, @13, @14, @15, @16, NULL, @17, @18, @19, @20, @21, NULL, @22, @23, @24, NULL, @25, NULL, @26, @27, NULL, @28, NULL, NULL, NULL, NULL)
SELECT [Id]
FROM [dbo].[Projects]
WHERE @@ROWCOUNT > 0 AND [Id] = scope_identity()
-- @0: 'Hatity' (Type = String, Size = 800)
-- @1: '11/6/2020 4:09:59 PM' (Type = DateTime2)
-- @2: '11/6/2020 4:09:59 PM' (Type = DateTime2)
-- @3: '3614879' (Type = Int64)
-- @4: '116087' (Type = Int32)
-- @5: '116087' (Type = Int32)
-- @6: '524647' (Type = Int64)
-- @7: '3/7/2019 12:00:00 AM' (Type = DateTime2)
-- @8: '4' (Type = Int32)
-- @9: '1' (Type = Int32)
-- @10: 'False' (Type = Boolean)
-- @11: 'True' (Type = Boolean)
-- @12: '0' (Type = Decimal, Precision = 18, Scale = 2)
-- @13: '0' (Type = Decimal, Precision = 18, Scale = 2)
-- @14: '9904c6ee-d3cc-4a91-9e35-944e2c89f1f2' (Type = Guid)
-- @15: 'In quis justo. Maecenas rhoncus aliquam lacus. Morbi quis tortor id nulla ultrices aliquet.' (Type = String, Size = -1)
-- @16: 'False' (Type = Boolean)
-- @17: '4100' (Type = Int32)
-- @18: '4100 - Hatity' (Type = String, Size = 850)
-- @19: '0' (Type = Decimal, Precision = 18, Scale = 2)
-- @20: 'False' (Type = Boolean)
-- @21: '0' (Type = Decimal, Precision = 18, Scale = 2)
-- @22: '0' (Type = Decimal, Precision = 18, Scale = 2)
-- @23: 'False' (Type = Boolean)
-- @24: 'False' (Type = Boolean)
-- @25: '10/15/2018 12:00:00 AM' (Type = DateTime2)
-- @26: '116087' (Type = Int32)
-- @27: 'False' (Type = Boolean)
-- @28: 'False' (Type = Boolean)
-- Executing at 11/6/2020 4:10:00 PM -05:00
-- Completed in 89 ms with result: SqlDataReader

INSERT [dbo].[CustomFieldValues]([Guid], [CustomFieldId], [AccountId], [ProjectId], [ValueDateTime], [ValueString], [ValueNumber], [ContactId], [ValueBoolean], [ValueContactId])
VALUES (@0, @1, NULL, @2, NULL, NULL, NULL, NULL, @3, NULL)
SELECT [Id]
FROM [dbo].[CustomFieldValues]
WHERE @@ROWCOUNT > 0 AND [Id] = scope_identity()
-- @0: 'c49aa8b5-b098-4ebf-ab32-445d86243e8e' (Type = Guid)
-- @1: '169060' (Type = Int64)
-- @2: '1553340' (Type = Int64)
-- @3: 'False' (Type = Boolean)
-- Executing at 11/6/2020 4:10:00 PM -05:00
-- Completed in 56 ms with result: SqlDataReader

INSERT [dbo].[CustomFieldValues]([Guid], [CustomFieldId], [AccountId], [ProjectId], [ValueDateTime], [ValueString], [ValueNumber], [ContactId], [ValueBoolean], [ValueContactId])
VALUES (@0, @1, NULL, @2, NULL, @3, NULL, NULL, @4, NULL)
SELECT [Id]
FROM [dbo].[CustomFieldValues]
WHERE @@ROWCOUNT > 0 AND [Id] = scope_identity()
-- @0: 'de34fe1c-2a26-4aeb-964d-89316314a65f' (Type = Guid)
-- @1: '169061' (Type = Int64)
-- @2: '1553340' (Type = Int64)
-- @3: 'Aenean lectus. Pellentesque eget nunc. Donec quis orci eget orci vehicula condimentum.' (Type = String, Size = -1)
-- @4: 'False' (Type = Boolean)
-- Executing at 11/6/2020 4:10:00 PM -05:00
-- Completed in 54 ms with result: SqlDataReader

Committed transaction at 11/6/2020 4:10:00 PM -05:00
Closed connection at 11/6/2020 4:10:00 PM -05:00
Opened connection at 11/6/2020 4:10:00 PM -05:00
Started transaction at 11/6/2020 4:10:00 PM -05:00
INSERT INTO ProjectUsers VALUES(1553340, 116087);
INSERT INTO TagProjects VALUES(161924, 1553340);

-- Executing at 11/6/2020 4:10:00 PM -05:00
-- Completed in 55 ms with result: 2

Committed transaction at 11/6/2020 4:10:00 PM -05:00
Closed connection at 11/6/2020 4:10:00 PM -05:00
