Opened connection at 10/22/2020 1:13:17 PM -04:00
Started transaction at 10/22/2020 1:13:17 PM -04:00
INSERT [dbo].[Contacts]([Email], [Mobile], [Home], [Office], [Ext], [Fax], [Salutation], [Position], [IsEnabled], [IsDeleted], [CreatedDate], [LastModifiedDate], [CreatedBy_Id], [LastModifiedBy_Id], [TenantId], [DateOfBirth], [MailingAddressId], [OtherAddressId], [Gender], [Anniversary], [AccountId], [Type], [ConversionDate], [SkypeId], [Twitter], [LeadStatus], [LeadCompanyName], [OwnerId], [CampaignId], [Photo_Id], [Guid], [Notes], [JobTitle], [IsEmailOptOut], [FirstName], [LastName], [Prefix], [MiddleName], [Portal_Id], [DisplayName])
VALUES (@0, @1, NULL, @2, NULL, NULL, NULL, NULL, @3, @4, @5, @6, @7, @8, @9, NULL, NULL, NULL, @10, NULL, NULL, @11, NULL, NULL, NULL, @12, NULL, NULL, NULL, NULL, @13, NULL, NULL, @14, @15, @16, NULL, NULL, NULL, @17)
SELECT [Id], [FullName]
FROM [dbo].[Contacts]
WHERE @@ROWCOUNT > 0 AND [Id] = scope_identity()
-- @0: 'leapdaymom04@cox.net' (Type = String, Size = 100)
-- @1: '405-641-9949' (Type = String, Size = 50)
-- @2: '405-319-2286' (Type = String, Size = 50)
-- @3: 'True' (Type = Boolean)
-- @4: 'False' (Type = Boolean)
-- @5: '10/22/2020 1:13:16 PM' (Type = DateTime2)
-- @6: '10/22/2020 1:13:16 PM' (Type = DateTime2)
-- @7: '116076' (Type = Int32)
-- @8: '116076' (Type = Int32)
-- @9: '524646' (Type = Int64)
-- @10: '0' (Type = Int32)
-- @11: '0' (Type = Int32)
-- @12: '0' (Type = Int32)
-- @13: '9de35903-bd85-4356-9d42-ccbf0695c50c' (Type = Guid)
-- @14: 'False' (Type = Boolean)
-- @15: 'Lisa' (Type = String, Size = 50)
-- @16: 'Blake' (Type = String, Size = 50)
-- @17: 'Lisa  Blake' (Type = String, Size = 255)
-- Executing at 10/22/2020 1:13:17 PM -04:00
-- Completed in 93 ms with result: SqlDataReader

INSERT [dbo].[Accounts]([Name], [IsEnabled], [IsDeleted], [CreatedDate], [LastModifiedDate], [IsCustomPriceList], [CreatedBy_Id], [LastModifiedBy_Id], [TenantId], [PrimaryContactId], [PriceListId], [BillingAddressId], [ShippingAddressId], [Website], [CampaignId], [Logo_Id], [Guid], [Notes], [CultureName], [CurrencyCode], [IsAllowClientToViewAllOutstandingInvoices], [IsAllowClientToViewAllPayments], [IsAllowClientToViewAccountBalances], [IsSendInvoicePaymentReminders], [IsSendQuoteApprovalReminders], [IsAllowClientToViewAllPaidInvoices], [BoxFolderId], [Number], [QuickbooksId], [LastQuickbooksSyncDate], [XeroId], [LastXeroSyncDate], [NameAndNumber], [IsEmailSync], [IsFilesSync], [DropboxFolderId], [IsContactSync], [DefaultPaymentSourceGuid], [LedesClientId], [BoxSharedFolderUrl], [GoogleDriveFolderId], [OneDriveFolderId], [UtbmsIsEnabled], [HeadNoteClientId], [IsDisableEcheck])
VALUES (@0, @1, @2, @3, @4, @5, @6, @7, @8, @9, NULL, NULL, NULL, NULL, NULL, NULL, @10, NULL, @11, @12, @13, @14, @15, @16, @17, @18, NULL, @19, NULL, NULL, NULL, NULL, @20, @21, @22, NULL, @23, NULL, NULL, NULL, NULL, NULL, @24, NULL, @25)
SELECT [Id]
FROM [dbo].[Accounts]
WHERE @@ROWCOUNT > 0 AND [Id] = scope_identity()
-- @0: '' (Type = String, Size = 100)
-- @1: 'True' (Type = Boolean)
-- @2: 'False' (Type = Boolean)
-- @3: '10/22/2020 1:13:16 PM' (Type = DateTime2)
-- @4: '10/22/2020 1:13:16 PM' (Type = DateTime2)
-- @5: 'False' (Type = Boolean)
-- @6: '116076' (Type = Int32)
-- @7: '116076' (Type = Int32)
-- @8: '524646' (Type = Int64)
-- @9: '3271953' (Type = Int64)
-- @10: 'fbe00ad8-7099-4ea2-9e34-725118025450' (Type = Guid)
-- @11: 'en-US' (Type = String, Size = 5)
-- @12: 'USD' (Type = String, Size = 3)
-- @13: 'False' (Type = Boolean)
-- @14: 'False' (Type = Boolean)
-- @15: 'False' (Type = Boolean)
-- @16: 'False' (Type = Boolean)
-- @17: 'False' (Type = Boolean)
-- @18: 'False' (Type = Boolean)
-- @19: '1044' (Type = Int32)
-- @20: '1044 - Lisa  Blake' (Type = String, Size = 255)
-- @21: 'False' (Type = Boolean)
-- @22: 'False' (Type = Boolean)
-- @23: 'False' (Type = Boolean)
-- @24: 'False' (Type = Boolean)
-- @25: 'False' (Type = Boolean)
-- Executing at 10/22/2020 1:13:17 PM -04:00
-- Completed in 72 ms with result: SqlDataReader