Opened connection at 11/6/2020 4:31:04 PM -05:00
Started transaction at 11/6/2020 4:31:04 PM -05:00
INSERT [dbo].[Projects]([Name], [CreatedDate], [LastModifiedDate], [AccountId], [CreatedBy_Id], [LastModifiedBy_Id], [TenantId], [DueDate], [Status], [HourlyRateType], [IsDeleted], [IsEnabled], [HourlyRate], [FlatRate], [Guid], [Notes], [IsFlatRateBilled], [BoxFolderId], [Number], [NameAndNumber], [BillableFlatRate], [EvergreenIsOn], [EvergreenAmount], [LedesClientMatterId], [ContingencyRatePercent], [IsEmailSync], [IsFilesSync], [DropboxFolderId], [OpenDate], [CloseDate], [OriginatedBy_Id], [IsContactSync], [DefaultPaymentSourceGuid], [IsAddEvergreenToInvoice], [BoxSharedFolderUrl], [GoogleDriveFolderId], [OneDriveFolderId], [PresetProjectRate_Id])
VALUES (@0, @1, @2, @3, @4, @5, @6, @7, @8, @9, @10, @11, @12, @13, @14, @15, @16, NULL, @17, @18, @19, @20, @21, NULL, @22, @23, @24, NULL, @25, NULL, @26, @27, NULL, @28, NULL, NULL, NULL, NULL)
SELECT [Id]
FROM [dbo].[Projects]
WHERE @@ROWCOUNT > 0 AND [Id] = scope_identity()
-- @0: 'Matsoft' (Type = String, Size = 800)
-- @1: '11/6/2020 4:31:04 PM' (Type = DateTime2)
-- @2: '11/6/2020 4:31:04 PM' (Type = DateTime2)
-- @3: '3615761' (Type = Int64)
-- @4: '116087' (Type = Int32)
-- @5: '116087' (Type = Int32)
-- @6: '524647' (Type = Int64)
-- @7: '5/10/2017 12:00:00 AM' (Type = DateTime2)
-- @8: '4' (Type = Int32)
-- @9: '1' (Type = Int32)
-- @10: 'False' (Type = Boolean)
-- @11: 'True' (Type = Boolean)
-- @12: '0' (Type = Decimal, Precision = 18, Scale = 2)
-- @13: '0' (Type = Decimal, Precision = 18, Scale = 2)
-- @14: '2a1a4044-3098-45d6-92dc-c6d2d2811508' (Type = Guid)
-- @15: 'Nulla ut erat id mauris vulputate elementum. Nullam varius. Nulla facilisi.' (Type = String, Size = -1)
-- @16: 'False' (Type = Boolean)
-- @17: '4918' (Type = Int32)
-- @18: '4918 - Matsoft' (Type = String, Size = 850)
-- @19: '0' (Type = Decimal, Precision = 18, Scale = 2)
-- @20: 'False' (Type = Boolean)
-- @21: '0' (Type = Decimal, Precision = 18, Scale = 2)
-- @22: '0' (Type = Decimal, Precision = 18, Scale = 2)
-- @23: 'False' (Type = Boolean)
-- @24: 'False' (Type = Boolean)
-- @25: '4/14/2011 12:00:00 AM' (Type = DateTime2)
-- @26: '116087' (Type = Int32)
-- @27: 'False' (Type = Boolean)
-- @28: 'False' (Type = Boolean)
-- Executing at 11/6/2020 4:31:04 PM -05:00
-- Completed in 62 ms with result: SqlDataReader

INSERT [dbo].[CustomFieldValues]([Guid], [CustomFieldId], [AccountId], [ProjectId], [ValueDateTime], [ValueString], [ValueNumber], [ContactId], [ValueBoolean], [ValueContactId])
VALUES (@0, @1, NULL, @2, NULL, NULL, NULL, NULL, @3, NULL)
SELECT [Id]
FROM [dbo].[CustomFieldValues]
WHERE @@ROWCOUNT > 0 AND [Id] = scope_identity()
-- @0: 'e2f9b5a2-3cf4-4dc0-9f98-c0ec0790cc2e' (Type = Guid)
-- @1: '169060' (Type = Int64)
-- @2: '1554222' (Type = Int64)
-- @3: 'False' (Type = Boolean)
-- Executing at 11/6/2020 4:31:04 PM -05:00
-- Completed in 55 ms with result: SqlDataReader

INSERT [dbo].[CustomFieldValues]([Guid], [CustomFieldId], [AccountId], [ProjectId], [ValueDateTime], [ValueString], [ValueNumber], [ContactId], [ValueBoolean], [ValueContactId])
VALUES (@0, @1, NULL, @2, NULL, @3, NULL, NULL, @4, NULL)
SELECT [Id]
FROM [dbo].[CustomFieldValues]
WHERE @@ROWCOUNT > 0 AND [Id] = scope_identity()
-- @0: 'ec1acec8-7d6c-45b7-b74c-89991099f2bf' (Type = Guid)
-- @1: '169061' (Type = Int64)
-- @2: '1554222' (Type = Int64)
-- @3: 'Suspendisse potenti. In eleifend quam a odio. In hac habitasse platea dictumst.' (Type = String, Size = -1)
-- @4: 'False' (Type = Boolean)
-- Executing at 11/6/2020 4:31:04 PM -05:00
-- Completed in 69 ms with result: SqlDataReader

Committed transaction at 11/6/2020 4:31:04 PM -05:00
Closed connection at 11/6/2020 4:31:04 PM -05:00
Opened connection at 11/6/2020 4:31:04 PM -05:00
Started transaction at 11/6/2020 4:31:04 PM -05:00
INSERT INTO ProjectUsers VALUES(1554222, 116087);

-- Executing at 11/6/2020 4:31:04 PM -05:00
-- Completed in 59 ms with result: 1

Committed transaction at 11/6/2020 4:31:04 PM -05:00
Closed connection at 11/6/2020 4:31:04 PM -05:00
