Opened connection at 11/6/2020 4:08:35 PM -05:00
Started transaction at 11/6/2020 4:08:35 PM -05:00
INSERT [dbo].[Projects]([Name], [CreatedDate], [LastModifiedDate], [AccountId], [CreatedBy_Id], [LastModifiedBy_Id], [TenantId], [DueDate], [Status], [HourlyRateType], [IsDeleted], [IsEnabled], [HourlyRate], [FlatRate], [Guid], [Notes], [IsFlatRateBilled], [BoxFolderId], [Number], [NameAndNumber], [BillableFlatRate], [EvergreenIsOn], [EvergreenAmount], [LedesClientMatterId], [ContingencyRatePercent], [IsEmailSync], [IsFilesSync], [DropboxFolderId], [OpenDate], [CloseDate], [OriginatedBy_Id], [IsContactSync], [DefaultPaymentSourceGuid], [IsAddEvergreenToInvoice], [BoxSharedFolderUrl], [GoogleDriveFolderId], [OneDriveFolderId], [PresetProjectRate_Id])
VALUES (@0, @1, @2, @3, @4, @5, @6, @7, @8, @9, @10, @11, @12, @13, @14, @15, @16, NULL, @17, @18, @19, @20, @21, NULL, @22, @23, @24, NULL, @25, NULL, @26, @27, NULL, @28, NULL, NULL, NULL, NULL)
SELECT [Id]
FROM [dbo].[Projects]
WHERE @@ROWCOUNT > 0 AND [Id] = scope_identity()
-- @0: 'Keylex' (Type = String, Size = 800)
-- @1: '11/6/2020 4:08:35 PM' (Type = DateTime2)
-- @2: '11/6/2020 4:08:35 PM' (Type = DateTime2)
-- @3: '3614804' (Type = Int64)
-- @4: '116087' (Type = Int32)
-- @5: '116087' (Type = Int32)
-- @6: '524647' (Type = Int64)
-- @7: '5/4/2019 12:00:00 AM' (Type = DateTime2)
-- @8: '4' (Type = Int32)
-- @9: '1' (Type = Int32)
-- @10: 'False' (Type = Boolean)
-- @11: 'True' (Type = Boolean)
-- @12: '0' (Type = Decimal, Precision = 18, Scale = 2)
-- @13: '0' (Type = Decimal, Precision = 18, Scale = 2)
-- @14: 'dbbf0dac-6ad7-47ab-8e4b-a49babfb6795' (Type = Guid)
-- @15: 'Etiam vel augue. Vestibulum rutrum rutrum neque. Aenean auctor gravida sem.' (Type = String, Size = -1)
-- @16: 'False' (Type = Boolean)
-- @17: '3583' (Type = Int32)
-- @18: '3583 - Keylex' (Type = String, Size = 850)
-- @19: '0' (Type = Decimal, Precision = 18, Scale = 2)
-- @20: 'False' (Type = Boolean)
-- @21: '0' (Type = Decimal, Precision = 18, Scale = 2)
-- @22: '0' (Type = Decimal, Precision = 18, Scale = 2)
-- @23: 'False' (Type = Boolean)
-- @24: 'False' (Type = Boolean)
-- @25: '7/19/2020 12:00:00 AM' (Type = DateTime2)
-- @26: '116087' (Type = Int32)
-- @27: 'False' (Type = Boolean)
-- @28: 'False' (Type = Boolean)
-- Executing at 11/6/2020 4:08:35 PM -05:00
-- Completed in 58 ms with result: SqlDataReader

INSERT [dbo].[CustomFieldValues]([Guid], [CustomFieldId], [AccountId], [ProjectId], [ValueDateTime], [ValueString], [ValueNumber], [ContactId], [ValueBoolean], [ValueContactId])
VALUES (@0, @1, NULL, @2, NULL, NULL, NULL, NULL, @3, NULL)
SELECT [Id]
FROM [dbo].[CustomFieldValues]
WHERE @@ROWCOUNT > 0 AND [Id] = scope_identity()
-- @0: '13dd1fe0-d723-4425-a149-cef5e9e14524' (Type = Guid)
-- @1: '169060' (Type = Int64)
-- @2: '1553265' (Type = Int64)
-- @3: 'True' (Type = Boolean)
-- Executing at 11/6/2020 4:08:35 PM -05:00
-- Completed in 54 ms with result: SqlDataReader

INSERT [dbo].[CustomFieldValues]([Guid], [CustomFieldId], [AccountId], [ProjectId], [ValueDateTime], [ValueString], [ValueNumber], [ContactId], [ValueBoolean], [ValueContactId])
VALUES (@0, @1, NULL, @2, NULL, @3, NULL, NULL, @4, NULL)
SELECT [Id]
FROM [dbo].[CustomFieldValues]
WHERE @@ROWCOUNT > 0 AND [Id] = scope_identity()
-- @0: 'd7cd8ae8-9ed6-4f5b-a99b-ee7264a2d0f1' (Type = Guid)
-- @1: '169061' (Type = Int64)
-- @2: '1553265' (Type = Int64)
-- @3: 'Pellentesque at nulla. Suspendisse potenti. Cras in purus eu magna vulputate luctus.' (Type = String, Size = -1)
-- @4: 'False' (Type = Boolean)
-- Executing at 11/6/2020 4:08:35 PM -05:00
-- Completed in 54 ms with result: SqlDataReader

Committed transaction at 11/6/2020 4:08:36 PM -05:00
Closed connection at 11/6/2020 4:08:36 PM -05:00
Opened connection at 11/6/2020 4:08:36 PM -05:00
Started transaction at 11/6/2020 4:08:36 PM -05:00
INSERT INTO ProjectUsers VALUES(1553265, 116087);
INSERT INTO TagProjects VALUES(161954, 1553265);

-- Executing at 11/6/2020 4:08:36 PM -05:00
-- Completed in 54 ms with result: 2

Committed transaction at 11/6/2020 4:08:36 PM -05:00
Closed connection at 11/6/2020 4:08:36 PM -05:00
