Opened connection at 10/22/2020 5:12:16 PM -04:00
Started transaction at 10/22/2020 5:12:16 PM -04:00
INSERT [dbo].[Projects]([Name], [CreatedDate], [LastModifiedDate], [AccountId], [CreatedBy_Id], [LastModifiedBy_Id], [TenantId], [DueDate], [Status], [HourlyRateType], [IsDeleted], [IsEnabled], [HourlyRate], [FlatRate], [Guid], [Notes], [IsFlatRateBilled], [BoxFolderId], [Number], [NameAndNumber], [BillableFlatRate], [EvergreenIsOn], [EvergreenAmount], [LedesClientMatterId], [ContingencyRatePercent], [IsEmailSync], [IsFilesSync], [DropboxFolderId], [OpenDate], [CloseDate], [OriginatedBy_Id], [IsContactSync], [DefaultPaymentSourceGuid], [IsAddEvergreenToInvoice], [BoxSharedFolderUrl], [GoogleDriveFolderId], [OneDriveFolderId], [PresetProjectRate_Id])
VALUES (@0, @1, @2, @3, @4, @5, @6, @7, @8, @9, @10, @11, @12, @13, @14, @15, @16, NULL, @17, @18, @19, @20, @21, NULL, @22, @23, @24, NULL, @25, NULL, @26, @27, NULL, @28, NULL, NULL, NULL, NULL)
SELECT [Id]
FROM [dbo].[Projects]
WHERE @@ROWCOUNT > 0 AND [Id] = scope_identity()
-- @0: '001.025 Cotton, Marsha' (Type = String, Size = 800)
-- @1: '10/22/2020 5:12:10 PM' (Type = DateTime2)
-- @2: '10/22/2020 5:12:10 PM' (Type = DateTime2)
-- @3: '3613928' (Type = Int64)
-- @4: '116076' (Type = Int32)
-- @5: '116076' (Type = Int32)
-- @6: '524646' (Type = Int64)
-- @7: '10/1/2019 5:00:00 PM' (Type = DateTime2)
-- @8: '4' (Type = Int32)
-- @9: '1' (Type = Int32)
-- @10: 'False' (Type = Boolean)
-- @11: 'True' (Type = Boolean)
-- @12: '0' (Type = Decimal, Precision = 18, Scale = 2)
-- @13: '0' (Type = Decimal, Precision = 18, Scale = 2)
-- @14: '1099f557-d402-4f92-b17b-eea067615301' (Type = Guid)
-- @15: '' (Type = String, Size = -1)
-- @16: 'False' (Type = Boolean)
-- @17: '10046' (Type = Int32)
-- @18: '10046 - 001.025 Cotton, Marsha' (Type = String, Size = 850)
-- @19: '0' (Type = Decimal, Precision = 18, Scale = 2)
-- @20: 'False' (Type = Boolean)
-- @21: '0' (Type = Decimal, Precision = 18, Scale = 2)
-- @22: '40' (Type = Decimal, Precision = 18, Scale = 2)
-- @23: 'False' (Type = Boolean)
-- @24: 'False' (Type = Boolean)
-- @25: '10/9/2018 5:00:00 PM' (Type = DateTime2)
-- @26: '116076' (Type = Int32)
-- @27: 'False' (Type = Boolean)
-- @28: 'False' (Type = Boolean)
-- Executing at 10/22/2020 5:12:16 PM -04:00
-- Completed in 87 ms with result: SqlDataReader

Committed transaction at 10/22/2020 5:12:16 PM -04:00
Closed connection at 10/22/2020 5:12:16 PM -04:00
Opened connection at 10/22/2020 5:12:16 PM -04:00
Started transaction at 10/22/2020 5:12:17 PM -04:00
INSERT INTO ProjectUsers VALUES(1552388, 116076)
-- Executing at 10/22/2020 5:12:17 PM -04:00
-- Completed in 53 ms with result: 1

Committed transaction at 10/22/2020 5:12:17 PM -04:00
Closed connection at 10/22/2020 5:12:17 PM -04:00
