Opened connection at 11/6/2020 4:25:00 PM -05:00
Started transaction at 11/6/2020 4:25:00 PM -05:00
INSERT [dbo].[Contacts]([Email], [Mobile], [Home], [Office], [Ext], [Fax], [Salutation], [Position], [IsEnabled], [IsDeleted], [CreatedDate], [LastModifiedDate], [CreatedBy_Id], [LastModifiedBy_Id], [TenantId], [DateOfBirth], [MailingAddressId], [OtherAddressId], [Gender], [Anniversary], [AccountId], [Type], [ConversionDate], [SkypeId], [Twitter], [LeadStatus], [LeadCompanyName], [OwnerId], [CampaignId], [Photo_Id], [Guid], [Notes], [JobTitle], [IsEmailOptOut], [FirstName], [LastName], [Prefix], [MiddleName], [Portal_Id], [DisplayName])
VALUES (@0, @1, @2, @3, NULL, @4, NULL, NULL, @5, @6, @7, @8, @9, @10, @11, NULL, NULL, NULL, @12, NULL, NULL, @13, NULL, NULL, NULL, @14, NULL, NULL, NULL, NULL, @15, @16, NULL, @17, @18, @19, NULL, NULL, NULL, @20)
SELECT [Id], [FullName]
FROM [dbo].[Contacts]
WHERE @@ROWCOUNT > 0 AND [Id] = scope_identity()
-- @0: 'bthompsonga@domainmarket.com' (Type = String, Size = 100)
-- @1: '334-864-0669' (Type = String, Size = 50)
-- @2: '336-177-6548' (Type = String, Size = 50)
-- @3: '818-385-1713' (Type = String, Size = 50)
-- @4: '201-619-3440' (Type = String, Size = 50)
-- @5: 'True' (Type = Boolean)
-- @6: 'False' (Type = Boolean)
-- @7: '11/6/2020 4:25:00 PM' (Type = DateTime2)
-- @8: '11/6/2020 4:25:00 PM' (Type = DateTime2)
-- @9: '116087' (Type = Int32)
-- @10: '116087' (Type = Int32)
-- @11: '524647' (Type = Int64)
-- @12: '0' (Type = Int32)
-- @13: '0' (Type = Int32)
-- @14: '0' (Type = Int32)
-- @15: 'a8dd0adb-ae14-4d25-8382-e416e85799f4' (Type = Guid)
-- @16: 'Maecenas ut massa quis augue luctus tincidunt. Nulla mollis molestie lorem. Quisque ut erat.' (Type = String, Size = -1)
-- @17: 'False' (Type = Boolean)
-- @18: 'Benedick' (Type = String, Size = 50)
-- @19: 'Thompson' (Type = String, Size = 50)
-- @20: 'Benedick  Thompson' (Type = String, Size = 255)
-- Executing at 11/6/2020 4:25:00 PM -05:00
-- Completed in 255 ms with result: SqlDataReader

INSERT [dbo].[Accounts]([Name], [IsEnabled], [IsDeleted], [CreatedDate], [LastModifiedDate], [IsCustomPriceList], [CreatedBy_Id], [LastModifiedBy_Id], [TenantId], [PrimaryContactId], [PriceListId], [BillingAddressId], [ShippingAddressId], [Website], [CampaignId], [Logo_Id], [Guid], [Notes], [CultureName], [CurrencyCode], [IsAllowClientToViewAllOutstandingInvoices], [IsAllowClientToViewAllPayments], [IsAllowClientToViewAccountBalances], [IsSendInvoicePaymentReminders], [IsSendQuoteApprovalReminders], [IsAllowClientToViewAllPaidInvoices], [BoxFolderId], [Number], [QuickbooksId], [LastQuickbooksSyncDate], [XeroId], [LastXeroSyncDate], [NameAndNumber], [IsEmailSync], [IsFilesSync], [DropboxFolderId], [IsContactSync], [DefaultPaymentSourceGuid], [LedesClientId], [BoxSharedFolderUrl], [GoogleDriveFolderId], [OneDriveFolderId], [UtbmsIsEnabled], [HeadNoteClientId], [IsDisableEcheck])
VALUES (@0, @1, @2, @3, @4, @5, @6, @7, @8, @9, NULL, NULL, NULL, @10, NULL, NULL, @11, NULL, @12, @13, @14, @15, @16, @17, @18, @19, NULL, @20, NULL, NULL, NULL, NULL, @21, @22, @23, NULL, @24, NULL, NULL, NULL, NULL, NULL, @25, NULL, @26)
SELECT [Id]
FROM [dbo].[Accounts]
WHERE @@ROWCOUNT > 0 AND [Id] = scope_identity()
-- @0: '' (Type = String, Size = 100)
-- @1: 'True' (Type = Boolean)
-- @2: 'False' (Type = Boolean)
-- @3: '11/6/2020 4:25:00 PM' (Type = DateTime2)
-- @4: '11/6/2020 4:25:00 PM' (Type = DateTime2)
-- @5: 'False' (Type = Boolean)
-- @6: '116087' (Type = Int32)
-- @7: '116087' (Type = Int32)
-- @8: '524647' (Type = Int64)
-- @9: '3273671' (Type = Int64)
-- @10: 'www.google.com' (Type = String, Size = 200)
-- @11: 'f0c93702-5391-40d3-91ad-71130e5ea908' (Type = Guid)
-- @12: 'en-US' (Type = String, Size = 5)
-- @13: 'USD' (Type = String, Size = 3)
-- @14: 'False' (Type = Boolean)
-- @15: 'False' (Type = Boolean)
-- @16: 'False' (Type = Boolean)
-- @17: 'False' (Type = Boolean)
-- @18: 'False' (Type = Boolean)
-- @19: 'False' (Type = Boolean)
-- @20: '587' (Type = Int32)
-- @21: '587 - Benedick  Thompson' (Type = String, Size = 255)
-- @22: 'False' (Type = Boolean)
-- @23: 'False' (Type = Boolean)
-- @24: 'False' (Type = Boolean)
-- @25: 'False' (Type = Boolean)
-- @26: 'False' (Type = Boolean)
-- Executing at 11/6/2020 4:25:01 PM -05:00
-- Completed in 589 ms with result: SqlDataReader

INSERT [dbo].[Addresses]([Name], [Address1], [Address2], [City], [State], [Country], [PostalCode], [IsEnabled], [IsDeleted], [CreatedDate], [LastModifiedDate], [CreatedBy_Id], [LastModifiedBy_Id], [AccountId], [Contact_Id], [TenantId], [ContactId])
VALUES (@0, @1, @2, @3, @4, @5, @6, @7, @8, @9, @10, @11, @12, @13, NULL, @14, NULL)
SELECT [Id]
FROM [dbo].[Addresses]
WHERE @@ROWCOUNT > 0 AND [Id] = scope_identity()
-- @0: 'Billing' (Type = String, Size = 50)
-- @1: '7 Monument Circle' (Type = String, Size = 100)
-- @2: '5644' (Type = String, Size = 100)
-- @3: 'Greensboro' (Type = String, Size = 50)
-- @4: 'NC' (Type = String, Size = 50)
-- @5: 'United States' (Type = String, Size = 50)
-- @6: '27499' (Type = String, Size = 50)
-- @7: 'True' (Type = Boolean)
-- @8: 'False' (Type = Boolean)
-- @9: '11/6/2020 4:25:00 PM' (Type = DateTime2)
-- @10: '11/6/2020 4:25:00 PM' (Type = DateTime2)
-- @11: '116087' (Type = Int32)
-- @12: '116087' (Type = Int32)
-- @13: '3615640' (Type = Int64)
-- @14: '524647' (Type = Int64)
-- Executing at 11/6/2020 4:25:01 PM -05:00
-- Completed in 221 ms with result: SqlDataReader

INSERT [dbo].[Addresses]([Name], [Address1], [Address2], [City], [State], [Country], [PostalCode], [IsEnabled], [IsDeleted], [CreatedDate], [LastModifiedDate], [CreatedBy_Id], [LastModifiedBy_Id], [AccountId], [Contact_Id], [TenantId], [ContactId])
VALUES (@0, NULL, NULL, NULL, NULL, NULL, NULL, @1, @2, NULL, NULL, NULL, NULL, @3, NULL, NULL, NULL)
SELECT [Id]
FROM [dbo].[Addresses]
WHERE @@ROWCOUNT > 0 AND [Id] = scope_identity()
-- @0: 'Shipping' (Type = String, Size = 50)
-- @1: 'False' (Type = Boolean)
-- @2: 'False' (Type = Boolean)
-- @3: '3615640' (Type = Int64)
-- Executing at 11/6/2020 4:25:01 PM -05:00
-- Completed in 223 ms with result: SqlDataReader

INSERT [dbo].[CustomFieldValues]([Guid], [CustomFieldId], [AccountId], [ProjectId], [ValueDateTime], [ValueString], [ValueNumber], [ContactId], [ValueBoolean], [ValueContactId])
VALUES (@0, @1, NULL, NULL, NULL, @2, NULL, @3, @4, NULL)
SELECT [Id]
FROM [dbo].[CustomFieldValues]
WHERE @@ROWCOUNT > 0 AND [Id] = scope_identity()
-- @0: '01141a25-ff43-4ce4-b3f8-f5cbb57a7cd9' (Type = Guid)
-- @1: '169059' (Type = Int64)
-- @2: 'Open-source heuristic methodology' (Type = String, Size = -1)
-- @3: '3273671' (Type = Int64)
-- @4: 'False' (Type = Boolean)
-- Executing at 11/6/2020 4:25:02 PM -05:00
-- Completed in 222 ms with result: SqlDataReader

Committed transaction at 11/6/2020 4:25:02 PM -05:00
Closed connection at 11/6/2020 4:25:02 PM -05:00
Opened connection at 11/6/2020 4:25:02 PM -05:00
Started transaction at 11/6/2020 4:25:02 PM -05:00
UPDATE Accounts SET
	BillingAddressId = 5040571,
	ShippingAddressId = 5040572
WHERE Id = 3615640;

UPDATE Contacts SET
	AccountId = 3615640
WHERE Id = 3273671;
INSERT INTO AccountUsers VALUES(116089, 3615640);

-- Executing at 11/6/2020 4:25:02 PM -05:00
-- Completed in 280 ms with result: 3

Committed transaction at 11/6/2020 4:25:03 PM -05:00
Closed connection at 11/6/2020 4:25:03 PM -05:00
