Opened connection at 11/6/2020 4:35:02 PM -05:00
Started transaction at 11/6/2020 4:35:02 PM -05:00
INSERT [dbo].[Projects]([Name], [CreatedDate], [LastModifiedDate], [AccountId], [CreatedBy_Id], [LastModifiedBy_Id], [TenantId], [DueDate], [Status], [HourlyRateType], [IsDeleted], [IsEnabled], [HourlyRate], [FlatRate], [Guid], [Notes], [IsFlatRateBilled], [BoxFolderId], [Number], [NameAndNumber], [BillableFlatRate], [EvergreenIsOn], [EvergreenAmount], [LedesClientMatterId], [ContingencyRatePercent], [IsEmailSync], [IsFilesSync], [DropboxFolderId], [OpenDate], [CloseDate], [OriginatedBy_Id], [IsContactSync], [DefaultPaymentSourceGuid], [IsAddEvergreenToInvoice], [BoxSharedFolderUrl], [GoogleDriveFolderId], [OneDriveFolderId], [PresetProjectRate_Id])
VALUES (@0, @1, @2, @3, @4, @5, @6, @7, @8, @9, @10, @11, @12, @13, @14, @15, @16, NULL, @17, @18, @19, @20, @21, NULL, @22, @23, @24, NULL, @25, NULL, @26, @27, NULL, @28, NULL, NULL, NULL, NULL)
SELECT [Id]
FROM [dbo].[Projects]
WHERE @@ROWCOUNT > 0 AND [Id] = scope_identity()
-- @0: 'Zoolab' (Type = String, Size = 800)
-- @1: '11/6/2020 4:35:02 PM' (Type = DateTime2)
-- @2: '11/6/2020 4:35:02 PM' (Type = DateTime2)
-- @3: '3615925' (Type = Int64)
-- @4: '116087' (Type = Int32)
-- @5: '116087' (Type = Int32)
-- @6: '524647' (Type = Int64)
-- @7: '1/23/2017 12:00:00 AM' (Type = DateTime2)
-- @8: '4' (Type = Int32)
-- @9: '1' (Type = Int32)
-- @10: 'False' (Type = Boolean)
-- @11: 'True' (Type = Boolean)
-- @12: '0' (Type = Decimal, Precision = 18, Scale = 2)
-- @13: '0' (Type = Decimal, Precision = 18, Scale = 2)
-- @14: 'f72d0f92-2385-442a-84fe-5fe6265efbba' (Type = Guid)
-- @15: 'Duis bibendum. Morbi non quam nec dui luctus rutrum. Nulla tellus.' (Type = String, Size = -1)
-- @16: 'False' (Type = Boolean)
-- @17: '1710' (Type = Int32)
-- @18: '1710 - Zoolab' (Type = String, Size = 850)
-- @19: '0' (Type = Decimal, Precision = 18, Scale = 2)
-- @20: 'False' (Type = Boolean)
-- @21: '0' (Type = Decimal, Precision = 18, Scale = 2)
-- @22: '73' (Type = Decimal, Precision = 18, Scale = 2)
-- @23: 'False' (Type = Boolean)
-- @24: 'False' (Type = Boolean)
-- @25: '3/9/2013 12:00:00 AM' (Type = DateTime2)
-- @26: '116087' (Type = Int32)
-- @27: 'False' (Type = Boolean)
-- @28: 'False' (Type = Boolean)
-- Executing at 11/6/2020 4:35:02 PM -05:00
-- Completed in 122 ms with result: SqlDataReader

INSERT [dbo].[CustomFieldValues]([Guid], [CustomFieldId], [AccountId], [ProjectId], [ValueDateTime], [ValueString], [ValueNumber], [ContactId], [ValueBoolean], [ValueContactId])
VALUES (@0, @1, NULL, @2, NULL, NULL, NULL, NULL, @3, NULL)
SELECT [Id]
FROM [dbo].[CustomFieldValues]
WHERE @@ROWCOUNT > 0 AND [Id] = scope_identity()
-- @0: '2ccab546-d8ee-41f2-b686-82003000309c' (Type = Guid)
-- @1: '169060' (Type = Int64)
-- @2: '1554386' (Type = Int64)
-- @3: 'False' (Type = Boolean)
-- Executing at 11/6/2020 4:35:02 PM -05:00
-- Completed in 54 ms with result: SqlDataReader

INSERT [dbo].[CustomFieldValues]([Guid], [CustomFieldId], [AccountId], [ProjectId], [ValueDateTime], [ValueString], [ValueNumber], [ContactId], [ValueBoolean], [ValueContactId])
VALUES (@0, @1, NULL, @2, NULL, @3, NULL, NULL, @4, NULL)
SELECT [Id]
FROM [dbo].[CustomFieldValues]
WHERE @@ROWCOUNT > 0 AND [Id] = scope_identity()
-- @0: 'ed49292e-8940-4a8d-93bd-cd7f06b58ad3' (Type = Guid)
-- @1: '169061' (Type = Int64)
-- @2: '1554386' (Type = Int64)
-- @3: 'In sagittis dui vel nisl. Duis ac nibh. Fusce lacus purus, aliquet at, feugiat non, pretium quis, lectus.' (Type = String, Size = -1)
-- @4: 'False' (Type = Boolean)
-- Executing at 11/6/2020 4:35:02 PM -05:00
-- Completed in 55 ms with result: SqlDataReader

Committed transaction at 11/6/2020 4:35:02 PM -05:00
Closed connection at 11/6/2020 4:35:02 PM -05:00
