Opened connection at 11/6/2020 4:30:09 PM -05:00
Started transaction at 11/6/2020 4:30:09 PM -05:00
INSERT [dbo].[Projects]([Name], [CreatedDate], [LastModifiedDate], [AccountId], [CreatedBy_Id], [LastModifiedBy_Id], [TenantId], [DueDate], [Status], [HourlyRateType], [IsDeleted], [IsEnabled], [HourlyRate], [FlatRate], [Guid], [Notes], [IsFlatRateBilled], [BoxFolderId], [Number], [NameAndNumber], [BillableFlatRate], [EvergreenIsOn], [EvergreenAmount], [LedesClientMatterId], [ContingencyRatePercent], [IsEmailSync], [IsFilesSync], [DropboxFolderId], [OpenDate], [CloseDate], [OriginatedBy_Id], [IsContactSync], [DefaultPaymentSourceGuid], [IsAddEvergreenToInvoice], [BoxSharedFolderUrl], [GoogleDriveFolderId], [OneDriveFolderId], [PresetProjectRate_Id])
VALUES (@0, @1, @2, @3, @4, @5, @6, @7, @8, @9, @10, @11, @12, @13, @14, @15, @16, NULL, @17, @18, @19, @20, @21, NULL, @22, @23, @24, NULL, @25, NULL, @26, @27, NULL, @28, NULL, NULL, NULL, NULL)
SELECT [Id]
FROM [dbo].[Projects]
WHERE @@ROWCOUNT > 0 AND [Id] = scope_identity()
-- @0: 'Tempsoft' (Type = String, Size = 800)
-- @1: '11/6/2020 4:30:09 PM' (Type = DateTime2)
-- @2: '11/6/2020 4:30:09 PM' (Type = DateTime2)
-- @3: '3615723' (Type = Int64)
-- @4: '116087' (Type = Int32)
-- @5: '116087' (Type = Int32)
-- @6: '524647' (Type = Int64)
-- @7: '6/8/2017 12:00:00 AM' (Type = DateTime2)
-- @8: '2' (Type = Int32)
-- @9: '1' (Type = Int32)
-- @10: 'False' (Type = Boolean)
-- @11: 'True' (Type = Boolean)
-- @12: '0' (Type = Decimal, Precision = 18, Scale = 2)
-- @13: '0' (Type = Decimal, Precision = 18, Scale = 2)
-- @14: '1ecd4750-bf21-4c4f-a1aa-4d1e0826a744' (Type = Guid)
-- @15: 'Nullam sit amet turpis elementum ligula vehicula consequat. Morbi a ipsum. Integer a nibh.' (Type = String, Size = -1)
-- @16: 'False' (Type = Boolean)
-- @17: '437' (Type = Int32)
-- @18: '437 - Tempsoft' (Type = String, Size = 850)
-- @19: '0' (Type = Decimal, Precision = 18, Scale = 2)
-- @20: 'False' (Type = Boolean)
-- @21: '0' (Type = Decimal, Precision = 18, Scale = 2)
-- @22: '0' (Type = Decimal, Precision = 18, Scale = 2)
-- @23: 'False' (Type = Boolean)
-- @24: 'False' (Type = Boolean)
-- @25: '4/2/2019 12:00:00 AM' (Type = DateTime2)
-- @26: '116087' (Type = Int32)
-- @27: 'False' (Type = Boolean)
-- @28: 'False' (Type = Boolean)
-- Executing at 11/6/2020 4:30:09 PM -05:00
-- Completed in 141 ms with result: SqlDataReader

INSERT [dbo].[CustomFieldValues]([Guid], [CustomFieldId], [AccountId], [ProjectId], [ValueDateTime], [ValueString], [ValueNumber], [ContactId], [ValueBoolean], [ValueContactId])
VALUES (@0, @1, NULL, @2, NULL, NULL, NULL, NULL, @3, NULL)
SELECT [Id]
FROM [dbo].[CustomFieldValues]
WHERE @@ROWCOUNT > 0 AND [Id] = scope_identity()
-- @0: '1ba15ecb-e3e2-4c82-8dd5-d404f5804464' (Type = Guid)
-- @1: '169060' (Type = Int64)
-- @2: '1554184' (Type = Int64)
-- @3: 'False' (Type = Boolean)
-- Executing at 11/6/2020 4:30:09 PM -05:00
-- Completed in 109 ms with result: SqlDataReader

INSERT [dbo].[CustomFieldValues]([Guid], [CustomFieldId], [AccountId], [ProjectId], [ValueDateTime], [ValueString], [ValueNumber], [ContactId], [ValueBoolean], [ValueContactId])
VALUES (@0, @1, NULL, @2, NULL, @3, NULL, NULL, @4, NULL)
SELECT [Id]
FROM [dbo].[CustomFieldValues]
WHERE @@ROWCOUNT > 0 AND [Id] = scope_identity()
-- @0: 'c68fef74-dd0e-4db3-8606-3f265e6c7cbb' (Type = Guid)
-- @1: '169061' (Type = Int64)
-- @2: '1554184' (Type = Int64)
-- @3: 'Cras mi pede, malesuada in, imperdiet et, commodo vulputate, justo. In blandit ultrices enim. Lorem ipsum dolor sit amet, consectetuer adipiscing elit.' (Type = String, Size = -1)
-- @4: 'False' (Type = Boolean)
-- Executing at 11/6/2020 4:30:09 PM -05:00
-- Completed in 90 ms with result: SqlDataReader

Committed transaction at 11/6/2020 4:30:09 PM -05:00
Closed connection at 11/6/2020 4:30:09 PM -05:00
Opened connection at 11/6/2020 4:30:09 PM -05:00
Started transaction at 11/6/2020 4:30:10 PM -05:00
INSERT INTO TagProjects VALUES(161945, 1554184);

-- Executing at 11/6/2020 4:30:10 PM -05:00
-- Completed in 63 ms with result: 1

Committed transaction at 11/6/2020 4:30:10 PM -05:00
Closed connection at 11/6/2020 4:30:10 PM -05:00
